{
	"pages": [
		"Arabic_Presentation_Forms-B.png"
	],
	"chars": [
		{
			"id": 65214,
			"index": 2271,
			"char": "ﺾ",
			"width": 51,
			"height": 36,
			"xoffset": -3,
			"yoffset": 14,
			"xadvance": 44,
			"chnl": 15,
			"x": 0,
			"y": 0,
			"page": 0
		},
		{
			"id": 65210,
			"index": 2259,
			"char": "ﺺ",
			"width": 51,
			"height": 31,
			"xoffset": -3,
			"yoffset": 19,
			"xadvance": 44,
			"chnl": 15,
			"x": 0,
			"y": 38,
			"page": 0
		},
		{
			"id": 65202,
			"index": 2235,
			"char": "ﺲ",
			"width": 50,
			"height": 28,
			"xoffset": -3,
			"yoffset": 23,
			"xadvance": 43,
			"chnl": 15,
			"x": 53,
			"y": 0,
			"page": 0
		},
		{
			"id": 65206,
			"index": 2247,
			"char": "ﺶ",
			"width": 50,
			"height": 37,
			"xoffset": -3,
			"yoffset": 13,
			"xadvance": 43,
			"chnl": 15,
			"x": 53,
			"y": 30,
			"page": 0
		},
		{
			"id": 65273,
			"index": 2557,
			"char": "ﻹ",
			"width": 24,
			"height": 41,
			"xoffset": -1,
			"yoffset": 9,
			"xadvance": 21,
			"chnl": 15,
			"x": 0,
			"y": 71,
			"page": 0
		},
		{
			"id": 65160,
			"index": 2080,
			"char": "ﺈ",
			"width": 15,
			"height": 41,
			"xoffset": -2,
			"yoffset": 9,
			"xadvance": 8,
			"chnl": 15,
			"x": 26,
			"y": 71,
			"page": 0
		},
		{
			"id": 65274,
			"index": 2558,
			"char": "ﻺ",
			"width": 28,
			"height": 41,
			"xoffset": -1,
			"yoffset": 9,
			"xadvance": 22,
			"chnl": 15,
			"x": 43,
			"y": 71,
			"page": 0
		},
		{
			"id": 65212,
			"index": 2260,
			"char": "ﺼ",
			"width": 40,
			"height": 23,
			"xoffset": -5,
			"yoffset": 19,
			"xadvance": 31,
			"chnl": 15,
			"x": 105,
			"y": 0,
			"page": 0
		},
		{
			"id": 65230,
			"index": 2299,
			"char": "ﻎ",
			"width": 26,
			"height": 40,
			"xoffset": -3,
			"yoffset": 14,
			"xadvance": 18,
			"chnl": 15,
			"x": 73,
			"y": 69,
			"page": 0
		},
		{
			"id": 65216,
			"index": 2272,
			"char": "ﻀ",
			"width": 40,
			"height": 28,
			"xoffset": -5,
			"yoffset": 14,
			"xadvance": 31,
			"chnl": 15,
			"x": 105,
			"y": 25,
			"page": 0
		},
		{
			"id": 65190,
			"index": 2181,
			"char": "ﺦ",
			"width": 28,
			"height": 40,
			"xoffset": -3,
			"yoffset": 14,
			"xadvance": 21,
			"chnl": 15,
			"x": 101,
			"y": 69,
			"page": 0
		},
		{
			"id": 65208,
			"index": 2248,
			"char": "ﺸ",
			"width": 39,
			"height": 29,
			"xoffset": -5,
			"yoffset": 13,
			"xadvance": 30,
			"chnl": 15,
			"x": 0,
			"y": 114,
			"page": 0
		},
		{
			"id": 65204,
			"index": 2236,
			"char": "ﺴ",
			"width": 39,
			"height": 20,
			"xoffset": -5,
			"yoffset": 22,
			"xadvance": 30,
			"chnl": 15,
			"x": 41,
			"y": 114,
			"page": 0
		},
		{
			"id": 65246,
			"index": 2411,
			"char": "ﻞ",
			"width": 30,
			"height": 39,
			"xoffset": -3,
			"yoffset": 9,
			"xadvance": 23,
			"chnl": 15,
			"x": 0,
			"y": 145,
			"page": 0
		},
		{
			"id": 65168,
			"index": 2095,
			"char": "ﺐ",
			"width": 38,
			"height": 26,
			"xoffset": -3,
			"yoffset": 23,
			"xadvance": 31,
			"chnl": 15,
			"x": 32,
			"y": 145,
			"page": 0
		},
		{
			"id": 65174,
			"index": 2113,
			"char": "ﺖ",
			"width": 38,
			"height": 24,
			"xoffset": -3,
			"yoffset": 18,
			"xadvance": 31,
			"chnl": 15,
			"x": 72,
			"y": 136,
			"page": 0
		},
		{
			"id": 65234,
			"index": 2307,
			"char": "ﻒ",
			"width": 38,
			"height": 29,
			"xoffset": -3,
			"yoffset": 13,
			"xadvance": 31,
			"chnl": 15,
			"x": 147,
			"y": 0,
			"page": 0
		},
		{
			"id": 65178,
			"index": 2125,
			"char": "ﺚ",
			"width": 38,
			"height": 28,
			"xoffset": -3,
			"yoffset": 15,
			"xadvance": 31,
			"chnl": 15,
			"x": 147,
			"y": 31,
			"page": 0
		},
		{
			"id": 65156,
			"index": 2078,
			"char": "ﺄ",
			"width": 16,
			"height": 37,
			"xoffset": -4,
			"yoffset": 5,
			"xadvance": 8,
			"chnl": 15,
			"x": 112,
			"y": 111,
			"page": 0
		},
		{
			"id": 65211,
			"index": 2261,
			"char": "ﺻ",
			"width": 37,
			"height": 23,
			"xoffset": -5,
			"yoffset": 19,
			"xadvance": 30,
			"chnl": 15,
			"x": 112,
			"y": 150,
			"page": 0
		},
		{
			"id": 65158,
			"index": 2489,
			"char": "ﺆ",
			"width": 24,
			"height": 37,
			"xoffset": -3,
			"yoffset": 13,
			"xadvance": 17,
			"chnl": 15,
			"x": 130,
			"y": 111,
			"page": 0
		},
		{
			"id": 65215,
			"index": 2273,
			"char": "ﺿ",
			"width": 37,
			"height": 28,
			"xoffset": -5,
			"yoffset": 14,
			"xadvance": 30,
			"chnl": 15,
			"x": 131,
			"y": 61,
			"page": 0
		},
		{
			"id": 65271,
			"index": 2555,
			"char": "ﻷ",
			"width": 25,
			"height": 37,
			"xoffset": -3,
			"yoffset": 5,
			"xadvance": 21,
			"chnl": 15,
			"x": 156,
			"y": 91,
			"page": 0
		},
		{
			"id": 65182,
			"index": 2141,
			"char": "ﺞ",
			"width": 28,
			"height": 35,
			"xoffset": -3,
			"yoffset": 19,
			"xadvance": 21,
			"chnl": 15,
			"x": 156,
			"y": 130,
			"page": 0
		},
		{
			"id": 65272,
			"index": 2556,
			"char": "ﻸ",
			"width": 29,
			"height": 35,
			"xoffset": -2,
			"yoffset": 7,
			"xadvance": 22,
			"chnl": 15,
			"x": 0,
			"y": 186,
			"page": 0
		},
		{
			"id": 65186,
			"index": 2165,
			"char": "ﺢ",
			"width": 28,
			"height": 35,
			"xoffset": -3,
			"yoffset": 19,
			"xadvance": 21,
			"chnl": 15,
			"x": 31,
			"y": 186,
			"page": 0
		},
		{
			"id": 65224,
			"index": 2288,
			"char": "ﻈ",
			"width": 35,
			"height": 33,
			"xoffset": -5,
			"yoffset": 9,
			"xadvance": 26,
			"chnl": 15,
			"x": 72,
			"y": 162,
			"page": 0
		},
		{
			"id": 65220,
			"index": 2280,
			"char": "ﻄ",
			"width": 35,
			"height": 33,
			"xoffset": -5,
			"yoffset": 9,
			"xadvance": 26,
			"chnl": 15,
			"x": 109,
			"y": 175,
			"page": 0
		},
		{
			"id": 65207,
			"index": 2249,
			"char": "ﺷ",
			"width": 34,
			"height": 29,
			"xoffset": -5,
			"yoffset": 13,
			"xadvance": 27,
			"chnl": 15,
			"x": 151,
			"y": 167,
			"page": 0
		},
		{
			"id": 65203,
			"index": 2237,
			"char": "ﺳ",
			"width": 34,
			"height": 21,
			"xoffset": -5,
			"yoffset": 21,
			"xadvance": 27,
			"chnl": 15,
			"x": 146,
			"y": 198,
			"page": 0
		},
		{
			"id": 65242,
			"index": 2351,
			"char": "ﻚ",
			"width": 34,
			"height": 33,
			"xoffset": -3,
			"yoffset": 9,
			"xadvance": 27,
			"chnl": 15,
			"x": 187,
			"y": 0,
			"page": 0
		},
		{
			"id": 65269,
			"index": 2559,
			"char": "ﻵ",
			"width": 26,
			"height": 34,
			"xoffset": -3,
			"yoffset": 8,
			"xadvance": 21,
			"chnl": 15,
			"x": 187,
			"y": 35,
			"page": 0
		},
		{
			"id": 65226,
			"index": 2291,
			"char": "ﻊ",
			"width": 26,
			"height": 34,
			"xoffset": -3,
			"yoffset": 20,
			"xadvance": 18,
			"chnl": 15,
			"x": 187,
			"y": 71,
			"page": 0
		},
		{
			"id": 65238,
			"index": 2339,
			"char": "ﻖ",
			"width": 32,
			"height": 34,
			"xoffset": -3,
			"yoffset": 16,
			"xadvance": 25,
			"chnl": 15,
			"x": 187,
			"y": 107,
			"page": 0
		},
		{
			"id": 65222,
			"index": 2287,
			"char": "ﻆ",
			"width": 34,
			"height": 33,
			"xoffset": -3,
			"yoffset": 9,
			"xadvance": 27,
			"chnl": 15,
			"x": 187,
			"y": 143,
			"page": 0
		},
		{
			"id": 65218,
			"index": 2279,
			"char": "ﻂ",
			"width": 34,
			"height": 33,
			"xoffset": -3,
			"yoffset": 9,
			"xadvance": 27,
			"chnl": 15,
			"x": 187,
			"y": 178,
			"page": 0
		},
		{
			"id": 65200,
			"index": 2213,
			"char": "ﺰ",
			"width": 22,
			"height": 34,
			"xoffset": -4,
			"yoffset": 17,
			"xadvance": 14,
			"chnl": 15,
			"x": 223,
			"y": 0,
			"page": 0
		},
		{
			"id": 65275,
			"index": 2553,
			"char": "ﻻ",
			"width": 24,
			"height": 33,
			"xoffset": -1,
			"yoffset": 9,
			"xadvance": 21,
			"chnl": 15,
			"x": 221,
			"y": 36,
			"page": 0
		},
		{
			"id": 65248,
			"index": 2412,
			"char": "ﻠ",
			"width": 17,
			"height": 33,
			"xoffset": -5,
			"yoffset": 9,
			"xadvance": 8,
			"chnl": 15,
			"x": 215,
			"y": 71,
			"page": 0
		},
		{
			"id": 65250,
			"index": 2431,
			"char": "ﻢ",
			"width": 30,
			"height": 33,
			"xoffset": -3,
			"yoffset": 20,
			"xadvance": 23,
			"chnl": 15,
			"x": 0,
			"y": 223,
			"page": 0
		},
		{
			"id": 65154,
			"index": 2084,
			"char": "ﺂ",
			"width": 16,
			"height": 33,
			"xoffset": -4,
			"yoffset": 9,
			"xadvance": 8,
			"chnl": 15,
			"x": 32,
			"y": 223,
			"page": 0
		},
		{
			"id": 65166,
			"index": 2074,
			"char": "ﺎ",
			"width": 14,
			"height": 33,
			"xoffset": -2,
			"yoffset": 9,
			"xadvance": 8,
			"chnl": 15,
			"x": 50,
			"y": 223,
			"page": 0
		},
		{
			"id": 65243,
			"index": 2353,
			"char": "ﻛ",
			"width": 22,
			"height": 33,
			"xoffset": -5,
			"yoffset": 9,
			"xadvance": 15,
			"chnl": 15,
			"x": 223,
			"y": 106,
			"page": 0
		},
		{
			"id": 65247,
			"index": 2413,
			"char": "ﻟ",
			"width": 14,
			"height": 33,
			"xoffset": -5,
			"yoffset": 9,
			"xadvance": 8,
			"chnl": 15,
			"x": 66,
			"y": 221,
			"page": 0
		},
		{
			"id": 65270,
			"index": 2560,
			"char": "ﻶ",
			"width": 29,
			"height": 33,
			"xoffset": -2,
			"yoffset": 9,
			"xadvance": 22,
			"chnl": 15,
			"x": 82,
			"y": 221,
			"page": 0
		},
		{
			"id": 65219,
			"index": 2281,
			"char": "ﻃ",
			"width": 31,
			"height": 33,
			"xoffset": -5,
			"yoffset": 9,
			"xadvance": 25,
			"chnl": 15,
			"x": 113,
			"y": 210,
			"page": 0
		},
		{
			"id": 65244,
			"index": 2352,
			"char": "ﻜ",
			"width": 27,
			"height": 33,
			"xoffset": -5,
			"yoffset": 9,
			"xadvance": 18,
			"chnl": 15,
			"x": 146,
			"y": 221,
			"page": 0
		},
		{
			"id": 65276,
			"index": 2554,
			"char": "ﻼ",
			"width": 28,
			"height": 33,
			"xoffset": -1,
			"yoffset": 9,
			"xadvance": 22,
			"chnl": 15,
			"x": 175,
			"y": 221,
			"page": 0
		},
		{
			"id": 65223,
			"index": 2289,
			"char": "ﻇ",
			"width": 31,
			"height": 33,
			"xoffset": -5,
			"yoffset": 9,
			"xadvance": 25,
			"chnl": 15,
			"x": 205,
			"y": 213,
			"page": 0
		},
		{
			"id": 65184,
			"index": 2142,
			"char": "ﺠ",
			"width": 32,
			"height": 28,
			"xoffset": -5,
			"yoffset": 19,
			"xadvance": 23,
			"chnl": 15,
			"x": 247,
			"y": 0,
			"page": 0
		},
		{
			"id": 65239,
			"index": 2341,
			"char": "ﻗ",
			"width": 22,
			"height": 32,
			"xoffset": -5,
			"yoffset": 10,
			"xadvance": 15,
			"chnl": 15,
			"x": 234,
			"y": 71,
			"page": 0
		},
		{
			"id": 65192,
			"index": 2182,
			"char": "ﺨ",
			"width": 32,
			"height": 28,
			"xoffset": -5,
			"yoffset": 14,
			"xadvance": 23,
			"chnl": 15,
			"x": 247,
			"y": 30,
			"page": 0
		},
		{
			"id": 65188,
			"index": 2166,
			"char": "ﺤ",
			"width": 32,
			"height": 23,
			"xoffset": -5,
			"yoffset": 19,
			"xadvance": 23,
			"chnl": 15,
			"x": 247,
			"y": 105,
			"page": 0
		},
		{
			"id": 65235,
			"index": 2309,
			"char": "ﻓ",
			"width": 22,
			"height": 31,
			"xoffset": -5,
			"yoffset": 11,
			"xadvance": 15,
			"chnl": 15,
			"x": 247,
			"y": 130,
			"page": 0
		},
		{
			"id": 65179,
			"index": 2127,
			"char": "ﺛ",
			"width": 17,
			"height": 31,
			"xoffset": -5,
			"yoffset": 11,
			"xadvance": 9,
			"chnl": 15,
			"x": 258,
			"y": 60,
			"page": 0
		},
		{
			"id": 65264,
			"index": 2503,
			"char": "ﻰ",
			"width": 31,
			"height": 22,
			"xoffset": -3,
			"yoffset": 27,
			"xadvance": 24,
			"chnl": 15,
			"x": 61,
			"y": 197,
			"page": 0
		},
		{
			"id": 65162,
			"index": 2509,
			"char": "ﺊ",
			"width": 31,
			"height": 31,
			"xoffset": -3,
			"yoffset": 18,
			"xadvance": 24,
			"chnl": 15,
			"x": 238,
			"y": 163,
			"page": 0
		},
		{
			"id": 65196,
			"index": 2187,
			"char": "ﺬ",
			"width": 25,
			"height": 31,
			"xoffset": -3,
			"yoffset": 12,
			"xadvance": 17,
			"chnl": 15,
			"x": 238,
			"y": 196,
			"page": 0
		},
		{
			"id": 65266,
			"index": 2505,
			"char": "ﻲ",
			"width": 31,
			"height": 28,
			"xoffset": -3,
			"yoffset": 27,
			"xadvance": 24,
			"chnl": 15,
			"x": 113,
			"y": 245,
			"page": 0
		},
		{
			"id": 65172,
			"index": 2477,
			"char": "ﺔ",
			"width": 24,
			"height": 31,
			"xoffset": -3,
			"yoffset": 11,
			"xadvance": 16,
			"chnl": 15,
			"x": 205,
			"y": 248,
			"page": 0
		},
		{
			"id": 65254,
			"index": 2435,
			"char": "ﻦ",
			"width": 31,
			"height": 30,
			"xoffset": -3,
			"yoffset": 20,
			"xadvance": 24,
			"chnl": 15,
			"x": 66,
			"y": 256,
			"page": 0
		},
		{
			"id": 65260,
			"index": 2458,
			"char": "ﻬ",
			"width": 25,
			"height": 31,
			"xoffset": -5,
			"yoffset": 20,
			"xadvance": 15,
			"chnl": 15,
			"x": 231,
			"y": 248,
			"page": 0
		},
		{
			"id": 65191,
			"index": 2183,
			"char": "ﺧ",
			"width": 30,
			"height": 28,
			"xoffset": -5,
			"yoffset": 14,
			"xadvance": 23,
			"chnl": 15,
			"x": 0,
			"y": 258,
			"page": 0
		},
		{
			"id": 65252,
			"index": 2432,
			"char": "ﻤ",
			"width": 30,
			"height": 22,
			"xoffset": -5,
			"yoffset": 20,
			"xadvance": 21,
			"chnl": 15,
			"x": 32,
			"y": 258,
			"page": 0
		},
		{
			"id": 65163,
			"index": 2511,
			"char": "ﺋ",
			"width": 16,
			"height": 30,
			"xoffset": -5,
			"yoffset": 12,
			"xadvance": 9,
			"chnl": 15,
			"x": 146,
			"y": 256,
			"page": 0
		},
		{
			"id": 65183,
			"index": 2143,
			"char": "ﺟ",
			"width": 30,
			"height": 29,
			"xoffset": -5,
			"yoffset": 19,
			"xadvance": 23,
			"chnl": 15,
			"x": 164,
			"y": 256,
			"page": 0
		},
		{
			"id": 65187,
			"index": 2167,
			"char": "ﺣ",
			"width": 30,
			"height": 23,
			"xoffset": -5,
			"yoffset": 19,
			"xadvance": 23,
			"chnl": 15,
			"x": 281,
			"y": 0,
			"page": 0
		},
		{
			"id": 65240,
			"index": 2340,
			"char": "ﻘ",
			"width": 26,
			"height": 29,
			"xoffset": -5,
			"yoffset": 13,
			"xadvance": 16,
			"chnl": 15,
			"x": 281,
			"y": 25,
			"page": 0
		},
		{
			"id": 65180,
			"index": 2126,
			"char": "ﺜ",
			"width": 20,
			"height": 29,
			"xoffset": -5,
			"yoffset": 13,
			"xadvance": 11,
			"chnl": 15,
			"x": 281,
			"y": 56,
			"page": 0
		},
		{
			"id": 65262,
			"index": 2481,
			"char": "ﻮ",
			"width": 24,
			"height": 29,
			"xoffset": -3,
			"yoffset": 22,
			"xadvance": 17,
			"chnl": 15,
			"x": 281,
			"y": 87,
			"page": 0
		},
		{
			"id": 65236,
			"index": 2308,
			"char": "ﻔ",
			"width": 26,
			"height": 29,
			"xoffset": -5,
			"yoffset": 13,
			"xadvance": 16,
			"chnl": 15,
			"x": 281,
			"y": 118,
			"page": 0
		},
		{
			"id": 65228,
			"index": 2292,
			"char": "ﻌ",
			"width": 28,
			"height": 22,
			"xoffset": -5,
			"yoffset": 20,
			"xadvance": 19,
			"chnl": 15,
			"x": 82,
			"y": 111,
			"page": 0
		},
		{
			"id": 65231,
			"index": 2301,
			"char": "ﻏ",
			"width": 26,
			"height": 28,
			"xoffset": -5,
			"yoffset": 14,
			"xadvance": 18,
			"chnl": 15,
			"x": 271,
			"y": 149,
			"page": 0
		},
		{
			"id": 65169,
			"index": 2097,
			"char": "ﺑ",
			"width": 16,
			"height": 28,
			"xoffset": -5,
			"yoffset": 21,
			"xadvance": 9,
			"chnl": 15,
			"x": 271,
			"y": 179,
			"page": 0
		},
		{
			"id": 65232,
			"index": 2300,
			"char": "ﻐ",
			"width": 28,
			"height": 28,
			"xoffset": -5,
			"yoffset": 14,
			"xadvance": 19,
			"chnl": 15,
			"x": 265,
			"y": 209,
			"page": 0
		},
		{
			"id": 65198,
			"index": 2211,
			"char": "ﺮ",
			"width": 22,
			"height": 28,
			"xoffset": -4,
			"yoffset": 23,
			"xadvance": 14,
			"chnl": 15,
			"x": 289,
			"y": 179,
			"page": 0
		},
		{
			"id": 65259,
			"index": 2459,
			"char": "ﻫ",
			"width": 27,
			"height": 26,
			"xoffset": -5,
			"yoffset": 16,
			"xadvance": 21,
			"chnl": 15,
			"x": 258,
			"y": 239,
			"page": 0
		},
		{
			"id": 65255,
			"index": 2437,
			"char": "ﻧ",
			"width": 16,
			"height": 27,
			"xoffset": -5,
			"yoffset": 15,
			"xadvance": 9,
			"chnl": 15,
			"x": 295,
			"y": 209,
			"page": 0
		},
		{
			"id": 65267,
			"index": 2507,
			"char": "ﻳ",
			"width": 17,
			"height": 27,
			"xoffset": -5,
			"yoffset": 21,
			"xadvance": 9,
			"chnl": 15,
			"x": 287,
			"y": 239,
			"page": 0
		},
		{
			"id": 65175,
			"index": 2115,
			"char": "ﺗ",
			"width": 17,
			"height": 27,
			"xoffset": -5,
			"yoffset": 15,
			"xadvance": 9,
			"chnl": 15,
			"x": 0,
			"y": 288,
			"page": 0
		},
		{
			"id": 65164,
			"index": 2510,
			"char": "ﺌ",
			"width": 20,
			"height": 27,
			"xoffset": -5,
			"yoffset": 15,
			"xadvance": 11,
			"chnl": 15,
			"x": 19,
			"y": 288,
			"page": 0
		},
		{
			"id": 65227,
			"index": 2293,
			"char": "ﻋ",
			"width": 26,
			"height": 23,
			"xoffset": -5,
			"yoffset": 19,
			"xadvance": 18,
			"chnl": 15,
			"x": 258,
			"y": 267,
			"page": 0
		},
		{
			"id": 65251,
			"index": 2433,
			"char": "ﻣ",
			"width": 26,
			"height": 22,
			"xoffset": -5,
			"yoffset": 20,
			"xadvance": 19,
			"chnl": 15,
			"x": 41,
			"y": 292,
			"page": 0
		},
		{
			"id": 65268,
			"index": 2506,
			"char": "ﻴ",
			"width": 20,
			"height": 25,
			"xoffset": -5,
			"yoffset": 23,
			"xadvance": 11,
			"chnl": 15,
			"x": 69,
			"y": 288,
			"page": 0
		},
		{
			"id": 65258,
			"index": 2457,
			"char": "ﻪ",
			"width": 24,
			"height": 25,
			"xoffset": -3,
			"yoffset": 17,
			"xadvance": 16,
			"chnl": 15,
			"x": 286,
			"y": 268,
			"page": 0
		},
		{
			"id": 65256,
			"index": 2436,
			"char": "ﻨ",
			"width": 20,
			"height": 25,
			"xoffset": -5,
			"yoffset": 17,
			"xadvance": 11,
			"chnl": 15,
			"x": 91,
			"y": 288,
			"page": 0
		},
		{
			"id": 65176,
			"index": 2114,
			"char": "ﺘ",
			"width": 20,
			"height": 25,
			"xoffset": -5,
			"yoffset": 17,
			"xadvance": 11,
			"chnl": 15,
			"x": 113,
			"y": 288,
			"page": 0
		},
		{
			"id": 65170,
			"index": 2096,
			"char": "ﺒ",
			"width": 20,
			"height": 25,
			"xoffset": -5,
			"yoffset": 23,
			"xadvance": 11,
			"chnl": 15,
			"x": 135,
			"y": 288,
			"page": 0
		},
		{
			"id": 65194,
			"index": 2185,
			"char": "ﺪ",
			"width": 25,
			"height": 25,
			"xoffset": -3,
			"yoffset": 17,
			"xadvance": 17,
			"chnl": 15,
			"x": 157,
			"y": 288,
			"page": 0
		},
		{
			"id": 65138,
			"index": 4283,
			"char": "ﹲ",
			"width": 17,
			"height": 16,
			"xoffset": -3,
			"yoffset": 8,
			"xadvance": 19,
			"chnl": 15,
			"x": 238,
			"y": 229,
			"page": 0
		},
		{
			"id": 65144,
			"index": 4286,
			"char": "ﹸ",
			"width": 14,
			"height": 16,
			"xoffset": -4,
			"yoffset": 8,
			"xadvance": 19,
			"chnl": 15,
			"x": 170,
			"y": 61,
			"page": 0
		},
		{
			"id": 65148,
			"index": 4287,
			"char": "ﹼ",
			"width": 16,
			"height": 13,
			"xoffset": -4,
			"yoffset": 10,
			"xadvance": 19,
			"chnl": 15,
			"x": 131,
			"y": 91,
			"page": 0
		},
		{
			"id": 65140,
			"index": 4284,
			"char": "ﹴ",
			"width": 15,
			"height": 14,
			"xoffset": -3,
			"yoffset": 36,
			"xadvance": 19,
			"chnl": 15,
			"x": 223,
			"y": 141,
			"page": 0
		},
		{
			"id": 65142,
			"index": 4285,
			"char": "ﹶ",
			"width": 15,
			"height": 11,
			"xoffset": -3,
			"yoffset": 12,
			"xadvance": 19,
			"chnl": 15,
			"x": 32,
			"y": 173,
			"page": 0
		},
		{
			"id": 65136,
			"index": 4282,
			"char": "ﹰ",
			"width": 15,
			"height": 14,
			"xoffset": -3,
			"yoffset": 10,
			"xadvance": 19,
			"chnl": 15,
			"x": 184,
			"y": 295,
			"page": 0
		},
		{
			"id": 65150,
			"index": 4288,
			"char": "ﹾ",
			"width": 14,
			"height": 14,
			"xoffset": -4,
			"yoffset": 9,
			"xadvance": 19,
			"chnl": 15,
			"x": 201,
			"y": 295,
			"page": 0
		},
		{
			"id": 65279,
			"index": 3695,
			"char": "﻿",
			"width": 0,
			"height": 0,
			"xoffset": -4,
			"yoffset": 34,
			"xadvance": 0,
			"chnl": 15,
			"x": 53,
			"y": 69,
			"page": 0
		}
	],
	"info": {
		"face": "FiraGO_Map",
		"size": 32,
		"bold": 0,
		"italic": 0,
		"charset": [
			"ﹰ",
			"ﹲ",
			"ﹴ",
			"ﹶ",
			"ﹸ",
			"ﹼ",
			"ﹾ",
			"ﺂ",
			"ﺄ",
			"ﺆ",
			"ﺈ",
			"ﺊ",
			"ﺋ",
			"ﺌ",
			"ﺎ",
			"ﺐ",
			"ﺑ",
			"ﺒ",
			"ﺔ",
			"ﺖ",
			"ﺗ",
			"ﺘ",
			"ﺚ",
			"ﺛ",
			"ﺜ",
			"ﺞ",
			"ﺟ",
			"ﺠ",
			"ﺢ",
			"ﺣ",
			"ﺤ",
			"ﺦ",
			"ﺧ",
			"ﺨ",
			"ﺪ",
			"ﺬ",
			"ﺮ",
			"ﺰ",
			"ﺲ",
			"ﺳ",
			"ﺴ",
			"ﺶ",
			"ﺷ",
			"ﺸ",
			"ﺺ",
			"ﺻ",
			"ﺼ",
			"ﺾ",
			"ﺿ",
			"ﻀ",
			"ﻂ",
			"ﻃ",
			"ﻄ",
			"ﻆ",
			"ﻇ",
			"ﻈ",
			"ﻊ",
			"ﻋ",
			"ﻌ",
			"ﻎ",
			"ﻏ",
			"ﻐ",
			"ﻒ",
			"ﻓ",
			"ﻔ",
			"ﻖ",
			"ﻗ",
			"ﻘ",
			"ﻚ",
			"ﻛ",
			"ﻜ",
			"ﻞ",
			"ﻟ",
			"ﻠ",
			"ﻢ",
			"ﻣ",
			"ﻤ",
			"ﻦ",
			"ﻧ",
			"ﻨ",
			"ﻪ",
			"ﻫ",
			"ﻬ",
			"ﻮ",
			"ﻰ",
			"ﻲ",
			"ﻳ",
			"ﻴ",
			"ﻵ",
			"ﻶ",
			"ﻷ",
			"ﻸ",
			"ﻹ",
			"ﻺ",
			"ﻻ",
			"ﻼ",
			"﻿"
		],
		"unicode": 1,
		"stretchH": 100,
		"smooth": 1,
		"aa": 1,
		"padding": [
			4,
			4,
			4,
			4
		],
		"spacing": [
			0,
			0
		]
	},
	"common": {
		"lineHeight": 38,
		"base": 34,
		"scaleW": 311,
		"scaleH": 315,
		"pages": 1,
		"packed": 0,
		"alphaChnl": 0,
		"redChnl": 0,
		"greenChnl": 0,
		"blueChnl": 0
	},
	"distanceField": {
		"fieldType": "msdf",
		"distanceRange": 8
	},
	"kernings": []
}
